# 
# Generated by Sweet Home 3D - gio ago 26 10:43:47 CEST 2021
# http://www.sweethome3d.com/
# 

newmtl ground_1
illum 1
Ka 0.65882355 0.65882355 0.65882355
Kd 0.65882355 0.65882355 0.65882355
Ks 0.0 0.0 0.0
Ns 1.0
Ni 1
d 1.0

newmtl wall_1_2
illum 1
Ka 0.2 0.2 0.2
Kd 1.0 1.0 1.0
Ks 0.0 0.0 0.0
Ns 1.0
Ni 1
d 1.0

newmtl white
illum 2
Ka 0.4 0.4 0.4
Kd 1.0 1.0 1.0
Ks 0.3 0.3 0.3
Ns 60.0

newmtl flltgrey
illum 1
Ka 0.5224 0.5224 0.5224
Kd 0.8245 0.8245 0.8245
Ks 0.0 0.0 0.0
Ns 1.0
d 0.5

newmtl iris
illum 2
Ka 0.3061 0.0556 0.0037
Kd 0.0 0.0572 0.3184
Ks 0.8041 0.6782 0.1477
Ns 128.0

newmtl brzskin
illum 2
Ka 0.4408 0.2694 0.1592
Kd 0.3796 0.2898 0.2122
Ks 0.3 0.3 0.3
Ns 25.0

newmtl grey
illum 2
Ka 0.5 0.5 0.5
Kd 0.1837 0.1837 0.1837
Ks 0.5 0.5 0.5
Ns 65.89

newmtl yellow_green
illum 2
Ka 0.0 0.0 0.0
Kd 0.1875 0.4082 0.0017
Ks 0.1878 0.1878 0.1878
Ns 91.47

newmtl flbrown
illum 1
Ka 0.0571 0.0066 0.0011
Kd 0.1102 0.012 0.0013
Ks 0.0 0.0 0.0
Ns 1.0

newmtl amber
illum 2
Ka 0.0531 0.0531 0.0531
Kd 0.5755 0.2678 0.0
Ks 0.3 0.3 0.3
Ns 60.0
